{
    "about_add_new_rule": {
        "message": "\uc0c8 \uaddc\uce59 \ucd94\uac00"
    },
    "about_ext_description": {
        "message": "\uc6f9\uc744 \uc554\ud638\ud654 \ud558\uc138\uc694! \uc790\ub3d9\uc73c\ub85c \uc5ec\ub7ec \uc0ac\uc774\ud2b8\uc5d0 HTTPS \ubcf4\uc548\uc744 \uc0ac\uc6a9\ud569\ub2c8\ub2e4."
    },
    "about_ext_name": {
        "message": "HTTPS Everywhere"
    },
    "about_rulesets_version": {
        "message": "\ud574\ub2f9 \ubc84\uc804\uc758 \uaddc\uce59:"
    },
    "about_title": {
        "message": "HTTPS Everywhere\uc5d0 \ub300\ud558\uc5ec"
    },
    "about_version": {
        "message": "\ubc84\uc804"
    },
    "cancel_he_blocking_explainer": {
        "message": "HTTPS Everywhere\ub294 \uc0ac\uc6a9\uc790\uac00 HTTPS \uc5c6\ub294 \ud398\uc774\uc9c0\ub97c \uc774\ub3d9\ud558\ub294 \uac83\uc744 \uae68\ub2eb\uc558\uace0 \ub300\uc2e0\uc5d0 HTTPS \ubc84\uc804\uc744 \uc804\uc1a1\ud574 \ubd24\uc2b5\ub2c8\ub2e4. HTTPS \ubc84\uc804\uc774 \uc774\uc6a9\ud560 \uc218 \uc5c6\uc2b5\ub2c8\ub2e4. \uc544\ub9c8 \uc774 \uc0ac\uc774\ud2b8\ub294 HTTPS\uac00 \uc9c0\uc6d0\ud558\uc9c0 \uc54a\uc2b5\ub2c8\ub2e4. \uadf8\ub798\ub3c4 \uac00\ud574\uc790\ub294 HTTPS \ubc84\uc804\uc744 \ucc28\ub2e8\ud558\uace0 \uc788\ub294 \uac83\ub3c4 \uac00\ub2a5\ud569\ub2c8\ub2e4. \uc774 \ud398\uc774\uc9c0\uc758 \uc554\ud638\ud654\ub418\uc9c0 \uc54a\uc740 \ubc84\uc804\uc744 \ubcf4\ub824\uba74 HTTPS Everywhere \ud655\uc7a5 \uae30\ub2a5\uc5d0\uc11c '\uc801\ud569\ud55c \ubaa8\ub4e0 \uc0ac\uc774\ud2b8\ub97c \uc554\ud638\ud654'(EASE)\uc774\ub77c\ub294 \uc635\uc158\uc744 \ube44\ud65c\uc131\ud654\ub3c4 \uac00\ub2a5\ud569\ub2c8\ub2e4. \uadf8 \uc635\uc158\uc744 \ube44\ud65c\uc131\ud654\ud558\uba74 \uc774\ub3d9\ud558\ub294 \uc6f9\uc0ac\uc774\ud2b8\uc5d0 \ube0c\ub77c\uc6b0\uc800\uac00 \ub124\ud2b8\uc6cc\ud06c \uae30\ubc18 \ub2e4\uc6b4\uadf8\ub808\uc774\ub4dc\ub85c \uacf5\uaca9\uc774 \ucde8\uc57d\ud560 \uc218\ub3c4 \uc788\ub294 \uac83\uc744 \uc758\uc2dd\ud558\uc2ed\uc2dc\uc624."
    },
    "cancel_he_blocking_network": {
        "message": "\ub124\ud2b8\uc6cc\ud06c \uae30\ubc18 \ub2e4\uc6b4\uadf8\ub808\uc774\ub4dc \uacf5\uaca9"
    },
    "cancel_http_once": {
        "message": "Open insecure page for this session only"
    },
    "cancel_open_page": {
        "message": "\uc548\uc804\ud558\uc9c0 \uc54a\uc740 \ud398\uc774\uc9c0\ub97c \uc5fd\ub2c8\ub2e4."
    },
    "chrome_add_new_rule": {
        "message": "\uc774 \uc0ac\uc774\ud2b8\uc5d0 \uc0c8 \uaddc\uce59 \ucd94\uac00"
    },
    "chrome_add_rule": {
        "message": "\uc774 \uc0ac\uc774\ud2b8\uc5d0 \uaddc\uce59 \ucd94\uac00"
    },
    "chrome_always_https_for_host": {
        "message": "\uc774 \ud638\uc2a4\ud2b8\uc5d0 \ud56d\uc0c1 https \uc0ac\uc6a9"
    },
    "chrome_disable_on_this_site": {
        "message": "\uc774 \uc0ac\uc774\ud2b8\uc5d0\uc11c HTTPS Everywhere \uc0ac\uc6a9 \uc548 \ud558\uae30"
    },
    "chrome_enable_on_this_site": {
        "message": "\uc774 \uc0ac\uc774\ud2b8\uc5d0\uc11c HTTPS Everywhere \uc0ac\uc6a9\ud558\uae30"
    },
    "chrome_experimental_rules": {
        "message": "\uc2e4\ud5d8\uc6a9 \uaddc\uce59"
    },
    "chrome_experimental_rules_description": {
        "message": "\uacbd\uace0\ub098 \uc624\ub958\ub97c \ubc1c\uc0dd\uc2dc\ud0ac \uc218 \uc788\uc74c. \uae30\ubcf8\uc124\uc815\uc740 \ube44\ud65c\uc131\ud654."
    },
    "chrome_hide_advanced": {
        "message": "\uace0\uae09 \uc228\uae30\uae30"
    },
    "chrome_host": {
        "message": "\ud638\uc2a4\ud2b8:"
    },
    "chrome_redirect_to": {
        "message": "\ub2e4\uc74c\uc73c\ub85c \ub9ac\ub2e4\uc774\ub809\ud2b8"
    },
    "chrome_regex": {
        "message": "\ud574\ub2f9 regex"
    },
    "chrome_rule_name": {
        "message": "\uaddc\uce59\uba85"
    },
    "chrome_settings_for_this_site_explained": {
        "message": "\ub2e4\ub978 \uc6f9 \uc0ac\uc774\ud2b8\ub97c \ube0c\ub77c\uc6b0\uc9d5\ud560 \ub54c \uac01 \uc6f9 \uc0ac\uc774\ud2b8\uc5d0 \ub300\ud574\uc11c \uae30\ubcf8 \uc124\uc815\uc744 \ubcc0\uacbd\ud560 \uc218 \uc788\uc2b5\ub2c8\ub2e4."
    },
    "chrome_settings_for_this_site_header": {
        "message": "\uc774 \uc0ac\uc774\ud2b8\ub97c \uc704\ud55c \uc124\uc815"
    },
    "chrome_settings_for_this_site_subheader": {
        "message": "\uc554\ud638\ud654\ub41c \uc5f0\uacb0\uc5d0 \ub300\ud55c \uae30\ubcf8 \uc124\uc815 \ubcc0\uacbd\ud569\ub2c8\ub2e4."
    },
    "chrome_show_advanced": {
        "message": "\uace0\uae09 \ubcf4\uc774\uae30"
    },
    "chrome_stable_rules": {
        "message": "Stable, \uc548\uc815\ub41c \uaddc\uce59"
    },
    "chrome_stable_rules_description": {
        "message": "\ub2e4\uc74c \uc0ac\uc774\ud2b8\uc5d0 \uc811\uc18d\uc2dc \uac15\uc81c \uc554\ud638\ud654:"
    },
    "chrome_status_cancel_button": {
        "message": "\ucde8\uc18c"
    },
    "menu_donate_eff_imperative": {
        "message": "EFF\uc5d0 \uae30\ubd80"
    },
    "menu_encryptAllSitesEligibleOff": {
        "message": "\ubaa8\ub4e0 \uc0ac\uc774\ud2b8\ub97c \uc554\ud638\ud654\ud558\uae30"
    },
    "menu_encryptAllSitesEligibleOn": {
        "message": "\uc801\ud569\ud55c \ubaa8\ub4e0 \uc0ac\uc774\ud2b8\ub97c \uc554\ud638\ud654\ud558\uae30"
    },
    "menu_globalDisable": {
        "message": "HTTPS Everywhere \uac00 \uaebc\uc838\uc788\uc2b5\ub2c8\ub2e4."
    },
    "menu_globalEnable": {
        "message": "HTTPS Everywhere \uac00 \ucf1c\uc788\uc2b5\ub2c8\ub2e4."
    },
    "menu_httpNoWhereExplainedAllowed": {
        "message": "\ud604\uc7ac \uc554\ud638\ud654\ub418\uc9c0 \uc54a\uc740 \uc694\uccad\uc740 \ud5c8\uc6a9\ub429\ub2c8\ub2e4."
    },
    "menu_httpNoWhereExplainedBlocked": {
        "message": "\ud604\uc7ac \uc554\ud638\ud654\ub418\uc9c0 \uc54a\uc740 \uc694\uccad\uc740 \ucc28\ub2e8\ub429\ub2c8\ub2e4."
    },
    "menu_httpNoWhereMore": {
        "message": "\uc774 \ubaa8\ub4dc\ub294 \uc554\ud638\ud654\ub418\uc9c0 \uc54a\uc740 \ucee8\ud150\uce20 \ubc0f \uc694\uccad\uc744 \ucc28\ub2e8\ud569\ub2c8\ub2e4."
    },
    "menu_observatory": {
        "message": "SSL \uad00\uce21 \ud658\uacbd \uc124\uc815"
    },
    "menu_seeLess": {
        "message": "\uc811\uc5b4\ubcf4\uae30"
    },
    "menu_seeMore": {
        "message": "\ub354\ubcf4\uae30"
    },
    "menu_showCounter": {
        "message": "\uce74\uc6b4\ud130 \ubcf4\uae30"
    },
    "menu_viewAllRules": {
        "message": "\ubaa8\ub4e0 \uaddc\uce59 \ud45c\uc2dc"
    },
    "options_addUpdateChannel": {
        "message": "\uc5c5\ub370\uc774\ud2b8 \ucc44\ub110 \ucd94\uac00"
    },
    "options_advancedSettings": {
        "message": "\uace0\uae09 \uc124\uc815"
    },
    "options_autoUpdateRulesets": {
        "message": "\uaddc\uce59 \uc790\ub3d9 \uc5c5\ub370\uc774\ud2b8"
    },
    "options_debuggingRulesets": {
        "message": "Debugging Rulesets (advanced)"
    },
    "options_delete": {
        "message": "\uc0ad\uc81c"
    },
    "options_disabledUrlsListed": {
        "message": "HTTPS Everywhere \uc0ac\uc774\ud2b8 \ube44\ud65c\uc131\ud654"
    },
    "options_enableMixedRulesets": {
        "message": "\ucee8\ud150\uce20 \ud63c\uc6a9 \uaddc\uce59 \ud65c\uc131\ud654"
    },
    "options_enterUpdateChannelName": {
        "message": "\uc5c5\ub370\uc774\ud2b8 \ucc44\ub110 \uc774\ub984\uc744 \uc785\ub825\ud558\uc138\uc694"
    },
    "options_generalSettings": {
        "message": "\uc77c\ubc18 \uc124\uc815"
    },
    "options_settings": {
        "message": "\uc124\uc815"
    },
    "options_showDevtoolsTab": {
        "message": "\uac1c\ubc1c\uc790 \ub3c4\uad6c \ud0ed \ubcf4\uae30"
    },
    "options_storedRulesetsVersion": {
        "message": "\uc800\uc7a5\ub41c \uaddc\uce59 \ubc84\uc804:"
    },
    "options_update": {
        "message": "\uc5c5\ub370\uc774\ud2b8"
    },
    "options_updateChannels": {
        "message": "\uc5c5\ub370\uc774\ud2b8 \ucc44\ub110"
    },
    "options_updateChannelsWarning": {
        "message": "\uacbd\uace0: \uc5c5\ub370\uc774\ud2b8 \ucc44\ub110\uc744 \ucd94\uac00\ud558\uba74 \uacf5\uaca9\uc790\uac00 \ube0c\ub77c\uc6b0\uc800\ub97c \uc81c\uc5b4\ud560 \uc218 \uc788\uc2b5\ub2c8\ub2e4. \ubc18\ub4dc\uc2dc \ud544\uc694\ud55c \uacbd\uc6b0\uc5d0\ub9cc \uc774 \ubd80\ubd84\uc744 \ud3b8\uc9d1\ud558\uc2ed\uc2dc\uc624!"
    },
    "options_updatesLastChecked": {
        "message": "\ub9c8\uc9c0\ub9c9 \uc5c5\ub370\uc774\ud2b8 \ud655\uc778 \uc77c\uc790:"
    },
    "options_updatesLastCheckedNever": {
        "message": "\ud655\uc778\ud558\uc9c0 \uc54a\uc74c"
    },
    "options_userRulesListed": {
        "message": "HTTPS Everywhere \uc0ac\uc6a9\uc790 \uaddc\uce59"
    },
    "prefs_export_settings": {
        "message": "\uc124\uc815 \ub0b4\ubcf4\ub0b4\uae30"
    },
    "prefs_reset_defaults": {
        "message": "\uae30\ubcf8\uac12\uc73c\ub85c \ucd08\uae30\ud654"
    },
    "prefs_reset_defaults_message": {
        "message": "\ubaa8\ub4e0 \uaddc\uce59\uc774 \uae30\ubcf8\uac12\uc73c\ub85c \ucd08\uae30\ud654\ub429\ub2c8\ub2e4. \uacc4\uc18d\ud558\uc2dc\uaca0\uc2b5\ub2c8\uae4c?"
    }
}