{
    "name" : {
        "message" : "Keeper® Password Manager & Digital Vault"
    },
    "description" : {
        "message" : "Protect and autofill passwords with the world's most trusted and #1 downloaded secure password manager and digital vault."
    }
}
