{
    "name" : {
        "message" : "Keeper® パスワードマネージャー & デジタルボルト"
    },
    "description" : {
        "message" : "Keeperの非常に優れたブラウザー拡張機能により、ログイン情報の自動入力ならびに、新たなウェブサイト情報をKeeperボルトに自動登録できます。"
    }
}
