<svg xmlns="http://www.w3.org/2000/svg" width="122" height="32" viewBox="0 0 122 32">
  <g fill="none" fill-rule="evenodd" transform="translate(10 6)">
    <polygon fill="#EC1D24" points="0 .001 0 19.87 28.535 19.87 30.892 14.873 33.285 19.906 40.424 19.906 40.424 0"/>
    <polygon fill="#FEFEFE" points="36.732 14.869 31.778 3.879 31.778 3.878 31.777 3.878 31.775 3.878 29.786 3.878 24.942 14.873 27.076 14.873 30.763 6.252 34.61 14.873"/>
    <path fill="#FEFEFE" d="M11.0939732 10.1628108C12.621474 9.59902703 13.352707 8.35145946 13.3352186 7.07956757 13.3073465 5.14983784 11.7765666 3.80227027 9.61292594 3.80227027L5.78351697 3.80227027 4.93205141 3.80227027 4.93205141 14.8547027 6.63607555 14.8547027 6.63607555 5.41632432 9.5145538 5.41632432C10.4791473 5.41632432 11.5164269 5.91254054 11.5328223 7.10227027 11.5475781 8.16281081 10.7480312 8.82497297 9.39213513 8.88172973L9.36535605 8.88281081 8.33299504 8.892 11.7721945 14.8725405 13.7855444 14.8687568C13.7855444 14.8687568 12.1307063 11.9774054 11.0939732 10.1628108M15.6454337 6.65643243C15.6454337 8.85697297 17.8527954 9.47751351 19.5688428 9.95751351 21.3575763 10.456973 21.9811463 11.0207568 21.9811463 11.8753514 21.9811463 13.3007568 20.5197735 13.5234595 19.6158428 13.5234595 18.3747142 13.5234595 17.3505509 13.1796757 16.3477015 12.5683243L15.4929569 14.0012973C16.7575855 14.7726486 18.0675745 15.1321081 19.6158428 15.1321081 22.2013906 15.1321081 23.9201706 13.8061622 23.9201706 11.7553514 23.9201706 9.46562162 21.8297625 8.83048649 20.0727267 8.34021622 18.2829002 7.83967568 17.582272 7.41589189 17.582272 6.56183784 17.582272 5.26724324 19.1857379 5.14075676 19.7590289 5.14075676 20.6613201 5.14075676 21.8089951 5.43967568 22.4883094 5.7867027L23.2080656 4.38562162C22.2915651 3.91751351 20.8859365 3.60291892 19.7109359 3.60291892 17.2100973 3.60291892 15.6454337 4.72994595 15.6454337 6.65643243"/>
    <g fill="#000" transform="translate(43.714 3.72)">
      <path d="M6.2625254 2.13150974C5.56927086 1.84180013 4.79928823 1.67445883 4.02768459 1.67445883 3.27283144 1.67445883 2.2975201 1.99449906 2.2975201 3.1517687 2.2975201 4.99409177 7.11193782 4.21752357 7.11193782 7.78084727 7.11193782 10.1100289 5.20778428 10.9932772 2.98969396 10.9932772 1.79338411 10.9932772 1.25952948 10.8411012.172368042 10.5822451L.377696743 8.6635726C1.13309023 9.05996229 1.99817247 9.31829541 2.86325471 9.31829541 3.69699731 9.31829541 4.81495805 8.90726336 4.81495805 7.94818856 4.81495805 5.92283595 1.55209179e-12 6.76006537 1.55209179e-12 3.24276053 1.55209179e-12.867560025 1.90415354 2.13162821e-14 3.83910638 2.13162821e-14 4.78307807 2.13162821e-14 5.66437047.121322439 6.46623309.380178504L6.2625254 2.13150974zM15.3433688 9.1481651C14.5566357 9.57436246 13.6753433 9.93937565 12.6524822 9.93937565 11.3470239 9.93937565 10.4338515 9.22399162 10.3392922 7.9600419L15.9404431 7.9600419C15.9404431 5.2198282 15.0910307 3.2248062 12.0862072 3.2248062 9.56876926 3.2248062 8.32653061 5.09745988 8.32653061 7.36650325 8.32653061 9.93937565 9.88378671 11.4318508 12.5579229 11.4318508 13.6910131 11.4318508 14.5723055 11.2184907 15.3433688 10.8079816L15.3433688 9.1481651zM10.3392922 6.5590815C10.4338515 5.50901488 11.0320064 4.71675843 12.2126465 4.71675843 13.3922058 4.71675843 13.8639215 5.56967609 13.9271411 6.5590815L10.3392922 6.5590815zM23.2603139 5.09798282C22.8820768 4.93011858 22.4725 4.80879614 21.8284163 4.80879614 20.5224177 4.80879614 19.6886751 5.81336686 19.6886751 7.29067672 19.6886751 8.73713304 20.3959785 9.84838383 21.8754258 9.84838383 22.4725 9.84838383 23.1344149 9.63554662 23.4959015 9.48337063L23.5899205 11.1729948C22.9771764 11.3560243 22.3482221 11.4323738 21.4820592 11.4323738 18.8230525 11.4323738 17.4857143 9.68104253 17.4857143 7.29067672 17.4857143 5.02163335 18.870062 3.2248062 21.4031698 3.2248062 22.2525822 3.2248062 22.8664069 3.31632097 23.4488921 3.48418521L23.2603139 5.09798282zM32.4211363 11.0663147L30.4229638 11.0663147 30.4229638 10.0005598 30.3916241 10.0005598C29.7464597 10.7619627 28.8332874 11.2493442 27.7326175 11.2493442 25.8127941 11.2493442 24.9795918 9.9398986 24.9795918 8.17340205L24.9795918 3.2248062 27.0874531 3.2248062 27.0874531 7.41199916C27.0874531 8.3715969 27.1031229 9.66535428 28.456131 9.66535428 29.9820474 9.66535428 30.3127347 8.06672198 30.3127347 7.06162833L30.3127347 3.2248062 32.4211363 3.2248062 32.4211363 11.0663147zM34.1387755 3.40783574L36.0110491 3.40783574 36.0110491 5.18949759 36.0423887 5.18949759C36.136948 4.45790237 37.0020302 3.2248062 38.2610194 3.2248062 38.4652674 3.2248062 38.6851852 3.2248062 38.9051031 3.28599036L38.9051031 5.34167358C38.7170652 5.23499351 38.3388281 5.17380934 37.9616717 5.17380934 36.2466367 5.17380934 36.2466367 7.24465787 36.2466367 8.37107396L36.2466367 11.2493442 34.1387755 11.2493442 34.1387755 3.40783574z"/>
      <polygon points="40.8 11.434 43.002 11.434 43.002 .806 40.8 .806"/>
      <path d="M44.9632653 11.4344655L47.9686291 11.4344655C51.3349391 11.4344655 54.3084229 10.3378571 54.3084229 6.12033354 54.3084229 1.90228703 51.3349391.80620155 47.9686291.80620155L44.9632653.80620155 44.9632653 11.4344655zM47.1651455 2.48118332L48.3933353 2.48118332C50.2337289 2.48118332 52.0119835 3.80579426 52.0119835 6.12033354 52.0119835 8.43487283 50.2337289 9.7600067 48.3933353 9.7600067L47.1651455 9.7600067 47.1651455 2.48118332zM56.3037874 1.73912927L56.6112401 1.73912927C56.7879309 1.73912927 56.9873158 1.77416635 56.9873158 1.98386591 56.9873158 2.22546491 56.8100848 2.25108904 56.6069174 2.25108904L56.3037874 2.25108904 56.3037874 1.73912927zM55.9595917 3.27605447L56.3037874 3.27605447 56.3037874 2.50576158 56.5118178 2.50576158 56.9910982 3.27605447 57.3444797 3.27605447 56.8462875 2.4921651C57.1494175 2.46601802 57.3304309 2.31697968 57.3304309 2.01053593 57.3304309 1.63401802 57.0905205 1.48497968 56.6474428 1.48497968L55.9595917 1.48497968 55.9595917 3.27605447zM56.5885459 3.96790614C57.4887502 3.96790614 58.2219898 3.2587974 58.2219898 2.38705384 58.2219898 1.51583323 57.4887502.80620155 56.5885459.80620155 55.6878013.80620155 54.955102 1.51583323 54.955102 2.38705384 54.955102 3.2587974 55.6878013 3.96790614 56.5885459 3.96790614L56.5885459 3.96790614zM56.5885459 3.66146239C55.9055578 3.66146239 55.3533317 3.12701613 55.3533317 2.38705384 55.3533317 1.64709156 55.9055578 1.1126453 56.5885459 1.1126453 57.2720743 1.1126453 57.8237601 1.64709156 57.8237601 2.38705384 57.8237601 3.12701613 57.2720743 3.66146239 56.5885459 3.66146239L56.5885459 3.66146239z"/>
    </g>
  </g>
</svg>
