{
    "name" : {
        "message" : "Keeper® Диспетчер паролей и цифровое хранилище"
    },
    "description" : {
        "message" : "Доступ и управление всеми паролями и конфиденциальным данным из браузера Chrome."
    }
}
